<?xml version="1.0" encoding="utf-8"?>
<!-- Generator: Adobe Illustrator 22.0.0, SVG Export Plug-In . SVG Version: 6.00 Build 0)  -->
<svg version="1.1" id="Layer_1" xmlns="http://www.w3.org/2000/svg" xmlns:xlink="http://www.w3.org/1999/xlink" x="0px" y="0px"
	 viewBox="0 0 100 125" style="enable-background:new 0 0 100 125;" xml:space="preserve">
<g>
	<path d="M49.5,16c-1.9,0-3.5,1.6-3.5,3.5s1.6,3.5,3.5,3.5s3.5-1.6,3.5-3.5S51.4,16,49.5,16z M49.5,22c-1.4,0-2.5-1.1-2.5-2.5
		s1.1-2.5,2.5-2.5s2.5,1.1,2.5,2.5S50.9,22,49.5,22z"/>
	<path d="M57.5,18c-0.8,0-1.5,0.7-1.5,1.5s0.7,1.5,1.5,1.5s1.5-0.7,1.5-1.5S58.3,18,57.5,18z M57.5,20c-0.3,0-0.5-0.2-0.5-0.5
		s0.2-0.5,0.5-0.5s0.5,0.2,0.5,0.5S57.8,20,57.5,20z"/>
	<path d="M16,93h36V40H16V93z M18,42h32v49H18V42z"/>
	<path d="M34,95c-2.8,0-5,2.2-5,5s2.2,5,5,5s5-2.2,5-5S36.8,95,34,95z M34,103c-1.7,0-3-1.3-3-3s1.3-3,3-3s3,1.3,3,3
		S35.7,103,34,103z"/>
	<path d="M31,37h6c1.1,0,2-0.9,2-2s-0.9-2-2-2h-6c-1.1,0-2,0.9-2,2S29.9,37,31,37z M31,34h6c0.6,0,1,0.4,1,1s-0.4,1-1,1h-6
		c-0.6,0-1-0.4-1-1S30.4,34,31,34z"/>
	<path d="M25,37c1.1,0,2-0.9,2-2s-0.9-2-2-2s-2,0.9-2,2S23.9,37,25,37z M25,34c0.6,0,1,0.4,1,1s-0.4,1-1,1s-1-0.4-1-1S24.4,34,25,34
		z"/>
</g>
<path d="M81,12H47c-2.8,0-5,2.2-5,5v11H17c-2.8,0-5,2.2-5,5v74c0,2.8,2.2,5,5,5h34c2.8,0,5-2.2,5-5V96h0.2h0.3h0.5h3.4h12.3h1.2h0.6
	h5.2H81c2.8,0,5-2.2,5-5V17C86,14.2,83.8,12,81,12z M54,107c0,1.7-1.3,3-3,3H17c-1.7,0-3-1.3-3-3v-0.4c0.7,0.9,1.8,1.4,3,1.4h34
	c1.2,0,2.3-0.5,3-1.4V107z M54,104c0,1.7-1.3,3-3,3H17c-1.7,0-3-1.3-3-3V33c0-0.2,0-0.4,0.1-0.6C14.3,31,15.6,30,17,30h34
	c0.2,0,0.4,0,0.6,0.1c1.2,0.2,2.1,1.2,2.3,2.3c0,0.2,0.1,0.4,0.1,0.6V104z M84,91c0,1.7-1.3,3-3,3H70H58h-2v-2h25
	c1.2,0,2.3-0.5,3-1.4V91z M84,88c0,1.7-1.3,3-3,3H56V33c0-2.8-2.2-5-5-5h-7v-2h40V88z M84,25H44v-8c0-0.2,0-0.4,0.1-0.6
	C44.3,15,45.6,14,47,14h34c1.4,0,2.7,1,2.9,2.4C84,16.6,84,16.8,84,17V25z"/>
</svg>
